<svg width="251" height="138" viewBox="0 0 251 138" fill="none" xmlns="http://www.w3.org/2000/svg">
<path d="M8 122C31.6667 133.667 87.4 143 121 87C163 17 198 -3.52859e-05 243 8.99996" stroke="#177B3E" stroke-width="7" stroke-linecap="round" stroke-dasharray="20 20"/>
</svg>
