<svg width="557" height="584" viewBox="0 0 557 584" fill="none" xmlns="http://www.w3.org/2000/svg">
<path d="M74.09 284.094C11.3727 371.432 140.955 391.965 255.248 371.413C369.542 350.862 316.906 413.818 438.918 408.703C560.93 403.589 570.044 302.041 546.888 217.326C523.731 132.61 381.167 176.224 315.604 93.9257C233.296 -9.39129 153.789 -11.341 35.5892 113.268C-82.6102 237.877 136.807 196.756 74.09 284.094Z" fill="#177B3E" fill-opacity="0.1"/>
<g clip-path="url(#clip0)">
<path d="M321.317 21.4883L111.879 66.4599L173.968 356.052L383.406 311.081L321.317 21.4883Z" fill="#E0E0E0"/>
<g opacity="0.5">
<path opacity="0.5" d="M318.83 27.1445L116.471 70.5962L176.461 350.4L378.821 306.948L318.83 27.1445Z" fill="url(#paint0_linear)"/>
</g>
<path d="M316.693 29.7572L119.485 72.1027L178.151 345.724L375.358 303.379L316.693 29.7572Z" fill="#FAFAFA"/>
<path d="M264.72 28.509L166.888 49.516L171.973 73.2323L269.805 52.2253L264.72 28.509Z" fill="url(#paint1_linear)"/>
<path d="M210.835 15.8486C203.282 17.4722 198.503 25.0605 200.165 32.7959C201.826 40.5314 209.291 45.4954 216.83 43.8718C224.368 42.2482 229.162 34.6599 227.5 26.9244C225.839 19.189 218.389 14.225 210.835 15.8486ZM215.575 37.9709C213.979 38.3519 212.305 38.2486 210.768 37.6742C209.23 37.0997 207.899 36.0802 206.942 34.7456C205.986 33.4109 205.448 31.8215 205.398 30.1799C205.348 28.5383 205.787 26.9189 206.66 25.5281C207.532 24.1373 208.799 23.038 210.299 22.3704C211.798 21.7028 213.462 21.497 215.079 21.7794C216.695 22.0618 218.192 22.8195 219.376 23.9559C220.561 25.0923 221.381 26.5561 221.731 28.1605C221.973 29.2094 222.006 30.2957 221.827 31.3572C221.649 32.4187 221.262 33.4344 220.69 34.346C220.118 35.2575 219.372 36.047 218.494 36.6691C217.616 37.2912 216.624 37.7336 215.575 37.9709Z" fill="url(#paint2_linear)"/>
<path d="M263.472 27.713L167.701 48.2775L172.561 70.9482L268.333 50.3837L263.472 27.713Z" fill="#177B3E"/>
<path d="M210.835 15.8486C208.188 16.4172 205.768 17.7586 203.883 19.7032C201.998 21.6478 200.731 24.1082 200.242 26.7734C199.754 29.4385 200.067 32.1887 201.14 34.6761C202.214 37.1636 204 39.2765 206.274 40.7479C208.548 42.2192 211.206 42.9829 213.913 42.9422C216.621 42.9016 219.255 42.0584 221.483 40.5195C223.712 38.9805 225.434 36.8149 226.433 34.2963C227.431 31.7778 227.661 29.0194 227.093 26.3702C226.716 24.6109 225.996 22.9432 224.975 21.4624C223.954 19.9815 222.651 18.7164 221.142 17.7394C219.632 16.7623 217.945 16.0925 216.176 15.7681C214.408 15.4436 212.593 15.471 210.835 15.8486ZM215.364 36.9898C213.836 37.3179 212.245 37.1852 210.792 36.6085C209.34 36.0317 208.091 35.0368 207.203 33.7496C206.316 32.4623 205.829 30.9406 205.806 29.3768C205.783 27.8131 206.223 26.2775 207.072 24.9643C207.921 23.6511 209.14 22.6193 210.574 21.9993C212.009 21.3794 213.595 21.1991 215.132 21.4814C216.67 21.7637 218.088 22.4958 219.21 23.5851C220.331 24.6745 221.104 26.0721 221.432 27.6014C221.871 29.6516 221.479 31.7925 220.341 33.5531C219.203 35.3137 217.413 36.5499 215.364 36.9898Z" fill="#177B3E"/>
<path d="M418.609 57.3463H204.404V353.53H418.609V57.3463Z" fill="#E0E0E0"/>
<g opacity="0.5">
<path opacity="0.5" d="M414.992 62.3544H208.027V348.527H414.992V62.3544Z" fill="url(#paint3_linear)"/>
</g>
<path d="M412.696 64H211V343.849H412.696V64Z" fill="white"/>
<path d="M361.801 52.3283H261.742V76.5843H361.801V52.3283Z" fill="url(#paint4_linear)"/>
<path d="M311.772 28.651C304.047 28.651 297.783 35.067 297.783 42.9839C297.783 50.9009 304.047 57.3168 311.772 57.3168C319.496 57.3168 325.76 50.9009 325.76 42.9839C325.76 35.067 319.496 28.651 311.772 28.651ZM311.772 51.254C310.129 51.293 308.513 50.8414 307.128 49.9567C305.744 49.072 304.654 47.7944 303.998 46.2871C303.343 44.7798 303.151 43.1111 303.447 41.4942C303.744 39.8772 304.515 38.3853 305.662 37.209C306.81 36.0327 308.282 35.2254 309.89 34.89C311.498 34.5547 313.169 34.7066 314.691 35.3264C316.212 35.9461 317.515 37.0056 318.432 38.3696C319.349 39.7335 319.839 41.34 319.839 42.9839C319.855 45.1446 319.015 47.2235 317.503 48.766C315.991 50.3084 313.93 51.1889 311.772 51.2148V51.254Z" fill="url(#paint5_linear)"/>
<path d="M360.747 51.2884H262.796V74.4751H360.747V51.2884Z" fill="#177B3E"/>
<path d="M311.771 28.651C309.064 28.651 306.417 29.4545 304.166 30.9599C301.914 32.4653 300.16 34.605 299.124 37.1084C298.087 39.6117 297.816 42.3664 298.345 45.0239C298.873 47.6815 300.177 50.1226 302.091 52.0386C304.006 53.9546 306.445 55.2594 309.101 55.788C311.756 56.3167 314.509 56.0453 317.01 55.0084C319.512 53.9715 321.65 52.2155 323.154 49.9625C324.658 47.7096 325.461 45.0608 325.461 42.3512C325.461 38.7177 324.019 35.233 321.452 32.6637C318.884 30.0944 315.402 28.651 311.771 28.651ZM311.771 50.2583C310.21 50.2563 308.684 49.7914 307.386 48.9223C306.089 48.0531 305.078 46.8187 304.481 45.3748C303.883 43.931 303.727 42.3424 304.032 40.8098C304.336 39.2771 305.087 37.8691 306.191 36.7635C307.294 35.6578 308.7 34.9042 310.231 34.5977C311.762 34.2911 313.35 34.4455 314.794 35.0413C316.237 35.637 317.472 36.6474 318.342 37.945C319.212 39.2425 319.679 40.7689 319.682 42.3315C319.682 43.3703 319.477 44.3988 319.079 45.3582C318.681 46.3176 318.098 47.1892 317.363 47.923C316.628 48.6569 315.756 49.2387 314.797 49.6351C313.838 50.0316 312.809 50.235 311.771 50.2338V50.2583Z" fill="#177B3E"/>
<g opacity="0.5">
<path opacity="0.5" d="M87.3278 361.535H85.4849V371.998H87.3278V361.535Z" fill="#47E6B1"/>
<path opacity="0.5" d="M91.6357 367.691V365.847H81.1809V367.691H91.6357Z" fill="#47E6B1"/>
</g>
<g opacity="0.5">
<path opacity="0.5" d="M301.14 0H299.297V10.4627H301.14V0Z" fill="#47E6B1"/>
<path opacity="0.5" d="M305.449 6.15106V4.30675L294.994 4.30675V6.15106L305.449 6.15106Z" fill="#47E6B1"/>
</g>
<path opacity="0.5" d="M455.944 378.953C455.435 378.732 455.026 378.331 454.794 377.827C454.562 377.323 454.523 376.752 454.684 376.221C454.71 376.14 454.727 376.056 454.733 375.971C454.748 375.728 454.684 375.487 454.551 375.283C454.418 375.079 454.223 374.924 453.995 374.84C453.766 374.755 453.517 374.747 453.284 374.816C453.051 374.884 452.845 375.026 452.699 375.22C452.648 375.289 452.605 375.363 452.572 375.441C452.35 375.95 451.95 376.359 451.446 376.592C450.943 376.824 450.372 376.863 449.841 376.702C449.76 376.676 449.676 376.659 449.591 376.653C449.349 376.638 449.108 376.702 448.904 376.835C448.7 376.968 448.545 377.163 448.461 377.392C448.377 377.62 448.368 377.87 448.437 378.103C448.506 378.337 448.647 378.542 448.842 378.688C448.91 378.739 448.984 378.782 449.062 378.816C449.57 379.037 449.98 379.438 450.212 379.942C450.444 380.446 450.483 381.017 450.322 381.548C450.296 381.629 450.279 381.713 450.273 381.798C450.258 382.041 450.322 382.282 450.455 382.486C450.588 382.69 450.783 382.845 451.011 382.929C451.239 383.014 451.489 383.022 451.722 382.954C451.955 382.885 452.16 382.743 452.307 382.549C452.358 382.48 452.401 382.406 452.434 382.328C452.656 381.819 453.056 381.41 453.559 381.177C454.063 380.945 454.634 380.906 455.164 381.067C455.246 381.093 455.329 381.11 455.414 381.116C455.657 381.131 455.898 381.067 456.102 380.934C456.305 380.801 456.461 380.606 456.545 380.377C456.629 380.149 456.637 379.9 456.569 379.666C456.5 379.433 456.359 379.227 456.164 379.081C456.096 379.03 456.022 378.987 455.944 378.953Z" fill="#4D8AF0"/>
<path opacity="0.5" d="M144.989 278.368C144.48 278.147 144.071 277.746 143.839 277.242C143.607 276.738 143.567 276.167 143.729 275.636C143.755 275.555 143.772 275.471 143.778 275.386C143.793 275.143 143.729 274.901 143.596 274.698C143.463 274.494 143.268 274.339 143.039 274.254C142.811 274.17 142.562 274.162 142.329 274.23C142.095 274.299 141.89 274.441 141.744 274.635C141.693 274.703 141.65 274.778 141.616 274.856C141.395 275.365 140.995 275.774 140.491 276.007C139.988 276.239 139.417 276.278 138.886 276.116C138.805 276.09 138.721 276.074 138.636 276.067C138.394 276.053 138.153 276.117 137.949 276.25C137.745 276.383 137.59 276.578 137.506 276.807C137.422 277.035 137.413 277.284 137.482 277.518C137.55 277.751 137.692 277.957 137.886 278.103C137.955 278.154 138.029 278.197 138.107 278.231C138.615 278.452 139.025 278.853 139.257 279.357C139.489 279.86 139.528 280.432 139.367 280.963C139.341 281.044 139.324 281.128 139.318 281.213C139.303 281.456 139.367 281.697 139.5 281.901C139.633 282.105 139.828 282.26 140.056 282.344C140.284 282.428 140.534 282.437 140.767 282.368C141 282.3 141.205 282.158 141.352 281.963C141.403 281.895 141.446 281.821 141.479 281.743C141.701 281.234 142.101 280.824 142.604 280.592C143.108 280.36 143.679 280.32 144.209 280.482C144.29 280.508 144.374 280.525 144.459 280.531C144.702 280.546 144.943 280.482 145.147 280.349C145.35 280.216 145.506 280.02 145.59 279.792C145.674 279.564 145.682 279.314 145.614 279.081C145.545 278.847 145.403 278.642 145.209 278.495C145.141 278.444 145.067 278.402 144.989 278.368Z" fill="#FDD835"/>
<path opacity="0.5" d="M403.988 33.4434C403.479 33.2219 403.07 32.8212 402.838 32.3174C402.606 31.8136 402.567 31.242 402.728 30.7112C402.754 30.63 402.771 30.5461 402.777 30.4611C402.792 30.2181 402.728 29.9769 402.595 29.7732C402.462 29.5694 402.267 29.414 402.039 29.3298C401.81 29.2456 401.561 29.2372 401.328 29.3057C401.094 29.3743 400.889 29.5163 400.743 29.7106C400.692 29.7789 400.649 29.853 400.616 29.9313C400.394 30.44 399.994 30.8496 399.49 31.082C398.987 31.3145 398.416 31.3536 397.885 31.1919C397.804 31.1658 397.72 31.1494 397.635 31.1429C397.393 31.1282 397.152 31.1922 396.948 31.3253C396.744 31.4584 396.589 31.6536 396.505 31.882C396.421 32.1103 396.412 32.3597 396.481 32.5932C396.549 32.8267 396.691 33.032 396.885 33.1785C396.954 33.2295 397.028 33.2723 397.106 33.3061C397.614 33.5275 398.024 33.9282 398.256 34.432C398.488 34.9358 398.527 35.5075 398.366 36.0382C398.34 36.1194 398.323 36.2034 398.317 36.2884C398.302 36.5313 398.366 36.7725 398.499 36.9763C398.632 37.18 398.827 37.3355 399.055 37.4197C399.283 37.5039 399.533 37.5123 399.766 37.4437C399.999 37.3751 400.204 37.2332 400.351 37.0389C400.402 36.9706 400.445 36.8965 400.478 36.8181C400.7 36.3094 401.1 35.8999 401.603 35.6674C402.107 35.435 402.678 35.3959 403.208 35.5575C403.29 35.5836 403.373 35.6001 403.458 35.6066C403.701 35.6212 403.942 35.5572 404.146 35.4241C404.349 35.291 404.505 35.0958 404.589 34.8675C404.673 34.6391 404.681 34.3897 404.613 34.1562C404.544 33.9227 404.402 33.7175 404.208 33.5709C404.14 33.5199 404.066 33.4771 403.988 33.4434Z" fill="#FDD835"/>
<path opacity="0.5" d="M476.314 157.946C478.353 157.946 480.005 156.293 480.005 154.253C480.005 152.213 478.353 150.559 476.314 150.559C474.276 150.559 472.624 152.213 472.624 154.253C472.624 156.293 474.276 157.946 476.314 157.946Z" fill="#F55F44"/>
<path opacity="0.5" d="M191.092 369.938C193.13 369.938 194.783 368.284 194.783 366.244C194.783 364.204 193.13 362.55 191.092 362.55C189.053 362.55 187.401 364.204 187.401 366.244C187.401 368.284 189.053 369.938 191.092 369.938Z" fill="#F55F44"/>
<path opacity="0.5" d="M438.411 237.783C440.449 237.783 442.102 236.129 442.102 234.089C442.102 232.049 440.449 230.396 438.411 230.396C436.373 230.396 434.72 232.049 434.72 234.089C434.72 236.129 436.373 237.783 438.411 237.783Z" fill="#F55F44"/>
<path opacity="0.5" d="M120.712 50.9548C122.75 50.9548 124.403 49.3012 124.403 47.2612C124.403 45.2213 122.75 43.5677 120.712 43.5677C118.673 43.5677 117.021 45.2213 117.021 47.2612C117.021 49.3012 118.673 50.9548 120.712 50.9548Z" fill="#4D8AF0"/>
<path opacity="0.5" d="M81.6908 151.712C83.7292 151.712 85.3816 150.058 85.3816 148.018C85.3816 145.978 83.7292 144.325 81.6908 144.325C79.6524 144.325 78 145.978 78 148.018C78 150.058 79.6524 151.712 81.6908 151.712Z" fill="#47E6B1"/>
<path d="M281.504 220C281.024 220 280.608 219.824 280.256 219.472C279.904 219.12 279.728 218.672 279.728 218.128V211.024H262.544C262.032 211.024 261.6 210.864 261.248 210.544C260.928 210.192 260.736 209.792 260.672 209.344C260.64 208.896 260.768 208.48 261.056 208.096L280.064 183.232C280.224 183.008 280.416 182.832 280.64 182.704C280.896 182.544 281.216 182.464 281.6 182.464C282.112 182.464 282.528 182.656 282.848 183.04C283.2 183.392 283.376 183.84 283.376 184.384V207.664H287.168C287.68 207.664 288.112 207.792 288.464 208.048C288.816 208.304 288.992 208.752 288.992 209.392C288.992 209.808 288.816 210.192 288.464 210.544C288.112 210.864 287.68 211.024 287.168 211.024H283.376V218.128C283.376 218.672 283.2 219.12 282.848 219.472C282.496 219.824 282.048 220 281.504 220ZM264.56 209.104L263.888 207.664H279.728V187.072L280.688 188.08L264.56 209.104ZM311.958 220C309.59 220 307.558 219.248 305.862 217.744C304.166 216.24 302.87 214.096 301.974 211.312C301.11 208.496 300.678 205.12 300.678 201.184C300.678 197.312 301.11 193.968 301.974 191.152C302.87 188.336 304.166 186.176 305.862 184.672C307.558 183.168 309.59 182.416 311.958 182.416C314.39 182.416 316.438 183.184 318.102 184.72C319.798 186.224 321.078 188.384 321.942 191.2C322.838 194.016 323.286 197.344 323.286 201.184C323.286 205.088 322.838 208.448 321.942 211.264C321.078 214.048 319.798 216.208 318.102 217.744C316.438 219.248 314.39 220 311.958 220ZM311.958 216.256C313.686 216.256 315.11 215.616 316.23 214.336C317.35 213.024 318.182 211.232 318.726 208.96C319.27 206.688 319.542 204.096 319.542 201.184C319.542 198.304 319.254 195.744 318.678 193.504C318.134 191.232 317.302 189.44 316.182 188.128C315.062 186.816 313.654 186.16 311.958 186.16C310.262 186.16 308.854 186.816 307.734 188.128C306.646 189.408 305.814 191.184 305.238 193.456C304.694 195.728 304.422 198.304 304.422 201.184C304.422 204.128 304.694 206.736 305.238 209.008C305.814 211.248 306.646 213.024 307.734 214.336C308.854 215.616 310.262 216.256 311.958 216.256ZM354.404 220C353.924 220 353.508 219.824 353.156 219.472C352.804 219.12 352.628 218.672 352.628 218.128V211.024H335.444C334.932 211.024 334.5 210.864 334.148 210.544C333.828 210.192 333.636 209.792 333.572 209.344C333.54 208.896 333.668 208.48 333.956 208.096L352.964 183.232C353.124 183.008 353.316 182.832 353.54 182.704C353.796 182.544 354.116 182.464 354.5 182.464C355.012 182.464 355.428 182.656 355.748 183.04C356.1 183.392 356.276 183.84 356.276 184.384V207.664H360.068C360.58 207.664 361.012 207.792 361.364 208.048C361.716 208.304 361.892 208.752 361.892 209.392C361.892 209.808 361.716 210.192 361.364 210.544C361.012 210.864 360.58 211.024 360.068 211.024H356.276V218.128C356.276 218.672 356.1 219.12 355.748 219.472C355.396 219.824 354.948 220 354.404 220ZM337.46 209.104L336.788 207.664H352.628V187.072L353.588 188.08L337.46 209.104Z" fill="#177B3E"/>
<path d="M279.728 211.024H281.728V209.024H279.728V211.024ZM261.248 210.544L259.768 211.889L259.832 211.96L259.903 212.024L261.248 210.544ZM260.672 209.344L258.677 209.486L258.682 209.557L258.692 209.627L260.672 209.344ZM261.056 208.096L259.467 206.881L259.462 206.889L259.456 206.896L261.056 208.096ZM280.064 183.232L281.653 184.447L281.673 184.421L281.691 184.394L280.064 183.232ZM280.64 182.704L281.632 184.44L281.667 184.421L281.7 184.4L280.64 182.704ZM282.848 183.04L281.312 184.32L281.37 184.39L281.434 184.454L282.848 183.04ZM283.376 207.664H281.376V209.664H283.376V207.664ZM288.464 208.048L289.64 206.431L289.64 206.431L288.464 208.048ZM288.464 210.544L289.809 212.024L289.845 211.992L289.878 211.958L288.464 210.544ZM283.376 211.024V209.024H281.376V211.024H283.376ZM282.848 219.472L281.434 218.058L281.434 218.058L282.848 219.472ZM264.56 209.104L262.748 209.95L264.141 212.936L266.147 210.321L264.56 209.104ZM263.888 207.664V205.664H260.748L262.076 208.51L263.888 207.664ZM279.728 207.664V209.664H281.728V207.664H279.728ZM279.728 187.072L281.176 185.693L277.728 182.072V187.072H279.728ZM280.688 188.08L282.275 189.297L283.316 187.94L282.136 186.701L280.688 188.08ZM281.504 218C281.507 218 281.52 218 281.541 218.005C281.563 218.009 281.587 218.016 281.611 218.026C281.664 218.048 281.683 218.07 281.67 218.058L278.842 220.886C279.553 221.598 280.472 222 281.504 222V218ZM281.67 218.058C281.674 218.061 281.683 218.072 281.694 218.088C281.705 218.105 281.715 218.123 281.722 218.141C281.725 218.149 281.727 218.156 281.728 218.161C281.73 218.166 281.73 218.169 281.73 218.169C281.73 218.169 281.73 218.165 281.729 218.159C281.729 218.152 281.728 218.142 281.728 218.128H277.728C277.728 219.148 278.078 220.122 278.842 220.886L281.67 218.058ZM281.728 218.128V211.024H277.728V218.128H281.728ZM279.728 209.024H262.544V213.024H279.728V209.024ZM262.544 209.024C262.52 209.024 262.509 209.022 262.509 209.022C262.509 209.022 262.511 209.022 262.515 209.023C262.519 209.025 262.524 209.026 262.531 209.029C262.544 209.034 262.558 209.04 262.571 209.048C262.584 209.056 262.592 209.063 262.593 209.064L259.903 212.024C260.652 212.705 261.576 213.024 262.544 213.024V209.024ZM262.728 209.199C262.663 209.127 262.656 209.092 262.652 209.061L258.692 209.627C258.816 210.492 259.193 211.257 259.768 211.889L262.728 209.199ZM262.667 209.202C262.667 209.207 262.668 209.218 262.666 209.235C262.664 209.252 262.66 209.269 262.656 209.284C262.645 209.318 262.636 209.322 262.656 209.296L259.456 206.896C258.901 207.637 258.608 208.523 258.677 209.486L262.667 209.202ZM262.645 209.311L281.653 184.447L278.475 182.017L259.467 206.881L262.645 209.311ZM281.691 184.394C281.695 184.389 281.692 184.395 281.679 184.406C281.667 184.418 281.651 184.43 281.632 184.44L279.648 180.968C279.156 181.248 278.753 181.627 278.437 182.07L281.691 184.394ZM281.7 184.4C281.635 184.441 281.582 184.458 281.557 184.464C281.535 184.47 281.545 184.464 281.6 184.464V180.464C280.942 180.464 280.23 180.602 279.58 181.008L281.7 184.4ZM281.6 184.464C281.601 184.464 281.542 184.463 281.458 184.424C281.372 184.384 281.324 184.335 281.312 184.32L284.384 181.76C283.674 180.907 282.689 180.464 281.6 180.464V184.464ZM281.434 184.454C281.43 184.451 281.421 184.44 281.41 184.424C281.399 184.407 281.389 184.389 281.382 184.371C281.379 184.363 281.377 184.356 281.376 184.351C281.374 184.346 281.374 184.343 281.374 184.343C281.374 184.343 281.374 184.347 281.375 184.353C281.375 184.36 281.376 184.37 281.376 184.384H285.376C285.376 183.364 285.026 182.39 284.262 181.626L281.434 184.454ZM281.376 184.384V207.664H285.376V184.384H281.376ZM283.376 209.664H287.168V205.664H283.376V209.664ZM287.168 209.664C287.257 209.664 287.299 209.675 287.308 209.678C287.312 209.679 287.311 209.679 287.305 209.676C287.3 209.673 287.293 209.67 287.288 209.665L289.64 206.431C288.889 205.884 288.026 205.664 287.168 205.664V209.664ZM287.288 209.665C287.213 209.611 287.147 209.546 287.095 209.476C287.044 209.407 287.014 209.347 286.998 209.307C286.97 209.235 286.992 209.244 286.992 209.392H290.992C290.992 208.428 290.721 207.217 289.64 206.431L287.288 209.665ZM286.992 209.392C286.992 209.308 287.012 209.224 287.042 209.159C287.069 209.1 287.087 209.093 287.05 209.13L289.878 211.958C290.526 211.31 290.992 210.441 290.992 209.392H286.992ZM287.119 209.064C287.12 209.062 287.128 209.056 287.141 209.048C287.154 209.04 287.168 209.034 287.181 209.029C287.188 209.026 287.193 209.025 287.197 209.023C287.201 209.022 287.203 209.022 287.203 209.022C287.203 209.022 287.192 209.024 287.168 209.024V213.024C288.136 213.024 289.06 212.705 289.809 212.024L287.119 209.064ZM287.168 209.024H283.376V213.024H287.168V209.024ZM281.376 211.024V218.128H285.376V211.024H281.376ZM281.376 218.128C281.376 218.142 281.375 218.152 281.375 218.159C281.374 218.165 281.374 218.169 281.374 218.169C281.374 218.169 281.374 218.166 281.376 218.161C281.377 218.156 281.379 218.149 281.382 218.141C281.389 218.123 281.399 218.105 281.41 218.088C281.421 218.072 281.43 218.061 281.434 218.058L284.262 220.886C285.026 220.122 285.376 219.148 285.376 218.128H281.376ZM281.434 218.058C281.437 218.054 281.448 218.045 281.464 218.034C281.481 218.023 281.499 218.013 281.517 218.006C281.525 218.003 281.532 218.001 281.537 218C281.542 217.998 281.545 217.998 281.545 217.998C281.545 217.998 281.541 217.998 281.535 217.999C281.528 217.999 281.518 218 281.504 218V222C282.524 222 283.498 221.65 284.262 220.886L281.434 218.058ZM266.372 208.258L265.7 206.818L262.076 208.51L262.748 209.95L266.372 208.258ZM263.888 209.664H279.728V205.664H263.888V209.664ZM281.728 207.664V187.072H277.728V207.664H281.728ZM278.28 188.451L279.24 189.459L282.136 186.701L281.176 185.693L278.28 188.451ZM279.101 186.863L262.973 207.887L266.147 210.321L282.275 189.297L279.101 186.863ZM301.974 211.312L300.062 211.899L300.066 211.912L300.07 211.925L301.974 211.312ZM301.974 191.152L300.068 190.546L300.065 190.555L300.062 190.565L301.974 191.152ZM305.862 184.672L304.535 183.176V183.176L305.862 184.672ZM318.102 184.72L316.746 186.19L316.76 186.203L316.775 186.216L318.102 184.72ZM321.942 191.2L320.03 191.787L320.033 191.797L320.036 191.806L321.942 191.2ZM321.942 211.264L320.036 210.658L320.034 210.664L320.032 210.671L321.942 211.264ZM318.102 217.744L319.443 219.228L319.445 219.226L318.102 217.744ZM316.23 214.336L317.735 215.653L317.743 215.644L317.751 215.635L316.23 214.336ZM318.726 208.96L320.671 209.426L318.726 208.96ZM318.678 193.504L316.733 193.97L316.737 193.986L316.741 194.002L318.678 193.504ZM307.734 188.128L306.213 186.829L306.21 186.833L307.734 188.128ZM305.238 193.456L303.299 192.965L303.296 192.977L303.293 192.99L305.238 193.456ZM305.238 209.008L303.293 209.474L303.297 209.49L303.301 209.506L305.238 209.008ZM307.734 214.336L306.195 215.613L306.212 215.633L306.229 215.653L307.734 214.336ZM311.958 218C310.055 218 308.502 217.412 307.189 216.248L304.535 219.24C306.615 221.084 309.125 222 311.958 222V218ZM307.189 216.248C305.828 215.041 304.695 213.239 303.878 210.699L300.07 211.925C301.045 214.953 302.504 217.439 304.535 219.24L307.189 216.248ZM303.886 210.725C303.096 208.151 302.678 204.984 302.678 201.184H298.678C298.678 205.256 299.124 208.841 300.062 211.899L303.886 210.725ZM302.678 201.184C302.678 197.452 303.095 194.316 303.886 191.739L300.062 190.565C299.125 193.62 298.678 197.172 298.678 201.184H302.678ZM303.88 191.758C304.699 189.184 305.833 187.371 307.189 186.168L304.535 183.176C302.499 184.981 301.041 187.488 300.068 190.546L303.88 191.758ZM307.189 186.168C308.502 185.004 310.055 184.416 311.958 184.416V180.416C309.125 180.416 306.615 181.332 304.535 183.176L307.189 186.168ZM311.958 184.416C313.928 184.416 315.48 185.021 316.746 186.19L319.459 183.25C317.396 181.347 314.852 180.416 311.958 180.416V184.416ZM316.775 186.216C318.125 187.414 319.242 189.219 320.03 191.787L323.854 190.613C322.914 187.549 321.471 185.034 319.429 183.224L316.775 186.216ZM320.036 191.806C320.854 194.378 321.286 197.492 321.286 201.184H325.286C325.286 197.196 324.822 193.654 323.848 190.594L320.036 191.806ZM321.286 201.184C321.286 204.944 320.854 208.089 320.036 210.658L323.848 211.87C324.823 208.807 325.286 205.232 325.286 201.184H321.286ZM320.032 210.671C319.246 213.205 318.127 215.023 316.76 216.262L319.445 219.226C321.47 217.393 322.911 214.891 323.852 211.857L320.032 210.671ZM316.761 216.26C315.497 217.403 313.94 218 311.958 218V222C314.84 222 317.379 221.093 319.443 219.228L316.761 216.26ZM311.958 218.256C314.252 218.256 316.229 217.375 317.735 215.653L314.725 213.019C313.992 213.857 313.12 214.256 311.958 214.256V218.256ZM317.751 215.635C319.136 214.013 320.078 211.901 320.671 209.426L316.781 208.494C316.286 210.563 315.564 212.035 314.709 213.037L317.751 215.635ZM320.671 209.426C321.259 206.969 321.542 204.216 321.542 201.184H317.542C317.542 203.976 317.281 206.407 316.781 208.494L320.671 209.426ZM321.542 201.184C321.542 198.175 321.242 195.443 320.615 193.006L316.741 194.002C317.267 196.045 317.542 198.433 317.542 201.184H321.542ZM320.623 193.038C320.03 190.563 319.088 188.451 317.703 186.829L314.661 189.427C315.516 190.429 316.238 191.901 316.733 193.97L320.623 193.038ZM317.703 186.829C316.211 185.081 314.251 184.16 311.958 184.16V188.16C313.057 188.16 313.913 188.551 314.661 189.427L317.703 186.829ZM311.958 184.16C309.665 184.16 307.705 185.081 306.213 186.829L309.255 189.427C310.003 188.551 310.859 188.16 311.958 188.16V184.16ZM306.21 186.833C304.862 188.419 303.923 190.506 303.299 192.965L307.177 193.947C307.706 191.862 308.43 190.397 309.258 189.423L306.21 186.833ZM303.293 192.99C302.705 195.445 302.422 198.182 302.422 201.184H306.422C306.422 198.426 306.683 196.011 307.183 193.922L303.293 192.99ZM302.422 201.184C302.422 204.246 302.705 207.016 303.293 209.474L307.183 208.542C306.684 206.456 306.422 204.01 306.422 201.184H302.422ZM303.301 209.506C303.926 211.935 304.864 214.008 306.195 215.613L309.274 213.059C308.429 212.04 307.702 210.561 307.175 208.51L303.301 209.506ZM306.229 215.653C307.728 217.366 309.684 218.256 311.958 218.256V214.256C310.841 214.256 309.981 213.866 309.239 213.019L306.229 215.653ZM352.628 211.024H354.628V209.024H352.628V211.024ZM334.148 210.544L332.668 211.889L332.732 211.96L332.803 212.024L334.148 210.544ZM333.572 209.344L331.577 209.486L331.582 209.557L331.592 209.627L333.572 209.344ZM333.956 208.096L332.367 206.881L332.362 206.889L332.356 206.896L333.956 208.096ZM352.964 183.232L354.553 184.447L354.573 184.421L354.591 184.394L352.964 183.232ZM353.54 182.704L354.532 184.44L354.567 184.421L354.6 184.4L353.54 182.704ZM355.748 183.04L354.212 184.32L354.27 184.39L354.334 184.454L355.748 183.04ZM356.276 207.664H354.276V209.664H356.276V207.664ZM361.364 208.048L362.54 206.431L362.54 206.431L361.364 208.048ZM361.364 210.544L362.709 212.024L362.745 211.992L362.778 211.958L361.364 210.544ZM356.276 211.024V209.024H354.276V211.024H356.276ZM355.748 219.472L354.334 218.058V218.058L355.748 219.472ZM337.46 209.104L335.648 209.95L337.041 212.936L339.047 210.321L337.46 209.104ZM336.788 207.664V205.664H333.648L334.976 208.51L336.788 207.664ZM352.628 207.664V209.664H354.628V207.664H352.628ZM352.628 187.072L354.076 185.693L350.628 182.072V187.072H352.628ZM353.588 188.08L355.175 189.297L356.216 187.94L355.036 186.701L353.588 188.08ZM354.404 218C354.407 218 354.42 218 354.441 218.005C354.463 218.009 354.487 218.016 354.511 218.026C354.564 218.048 354.583 218.07 354.57 218.058L351.742 220.886C352.453 221.598 353.372 222 354.404 222V218ZM354.57 218.058C354.574 218.061 354.583 218.072 354.594 218.088C354.605 218.105 354.615 218.123 354.622 218.141C354.625 218.149 354.627 218.156 354.628 218.161C354.63 218.166 354.63 218.169 354.63 218.169C354.63 218.169 354.63 218.165 354.629 218.159C354.629 218.152 354.628 218.142 354.628 218.128H350.628C350.628 219.148 350.978 220.122 351.742 220.886L354.57 218.058ZM354.628 218.128V211.024H350.628V218.128H354.628ZM352.628 209.024H335.444V213.024H352.628V209.024ZM335.444 209.024C335.42 209.024 335.409 209.022 335.409 209.022C335.409 209.022 335.411 209.022 335.415 209.023C335.419 209.025 335.424 209.026 335.431 209.029C335.444 209.034 335.458 209.04 335.471 209.048C335.484 209.056 335.492 209.063 335.493 209.064L332.803 212.024C333.552 212.705 334.476 213.024 335.444 213.024V209.024ZM335.628 209.199C335.563 209.127 335.556 209.092 335.552 209.061L331.592 209.627C331.716 210.492 332.093 211.257 332.668 211.889L335.628 209.199ZM335.567 209.202C335.567 209.207 335.568 209.218 335.566 209.235C335.564 209.252 335.56 209.269 335.556 209.284C335.545 209.318 335.536 209.322 335.556 209.296L332.356 206.896C331.801 207.637 331.508 208.523 331.577 209.486L335.567 209.202ZM335.545 209.311L354.553 184.447L351.375 182.017L332.367 206.881L335.545 209.311ZM354.591 184.394C354.595 184.389 354.592 184.395 354.579 184.406C354.567 184.418 354.551 184.43 354.532 184.44L352.548 180.968C352.056 181.248 351.653 181.627 351.337 182.07L354.591 184.394ZM354.6 184.4C354.535 184.441 354.482 184.458 354.457 184.464C354.435 184.47 354.445 184.464 354.5 184.464V180.464C353.842 180.464 353.13 180.602 352.48 181.008L354.6 184.4ZM354.5 184.464C354.501 184.464 354.442 184.463 354.358 184.424C354.272 184.384 354.224 184.335 354.212 184.32L357.284 181.76C356.574 180.907 355.589 180.464 354.5 180.464V184.464ZM354.334 184.454C354.33 184.451 354.321 184.44 354.31 184.424C354.299 184.407 354.289 184.389 354.283 184.371C354.279 184.363 354.277 184.356 354.276 184.351C354.274 184.346 354.274 184.343 354.274 184.343C354.274 184.343 354.274 184.347 354.275 184.353C354.275 184.36 354.276 184.37 354.276 184.384H358.276C358.276 183.364 357.926 182.39 357.162 181.626L354.334 184.454ZM354.276 184.384V207.664H358.276V184.384H354.276ZM356.276 209.664H360.068V205.664H356.276V209.664ZM360.068 209.664C360.157 209.664 360.199 209.675 360.208 209.678C360.212 209.679 360.211 209.679 360.205 209.676C360.2 209.673 360.193 209.67 360.188 209.665L362.54 206.431C361.789 205.884 360.926 205.664 360.068 205.664V209.664ZM360.188 209.665C360.113 209.611 360.047 209.546 359.995 209.476C359.944 209.407 359.914 209.347 359.898 209.307C359.87 209.235 359.892 209.244 359.892 209.392H363.892C363.892 208.428 363.621 207.217 362.54 206.431L360.188 209.665ZM359.892 209.392C359.892 209.308 359.912 209.224 359.942 209.159C359.969 209.1 359.987 209.093 359.95 209.13L362.778 211.958C363.426 211.31 363.892 210.441 363.892 209.392H359.892ZM360.019 209.064C360.02 209.062 360.028 209.056 360.041 209.048C360.054 209.04 360.068 209.034 360.081 209.029C360.088 209.026 360.093 209.025 360.097 209.023C360.101 209.022 360.103 209.022 360.103 209.022C360.103 209.022 360.092 209.024 360.068 209.024V213.024C361.036 213.024 361.96 212.705 362.709 212.024L360.019 209.064ZM360.068 209.024H356.276V213.024H360.068V209.024ZM354.276 211.024V218.128H358.276V211.024H354.276ZM354.276 218.128C354.276 218.142 354.275 218.152 354.275 218.159C354.274 218.165 354.274 218.169 354.274 218.169C354.274 218.169 354.274 218.166 354.276 218.161C354.277 218.156 354.279 218.149 354.283 218.141C354.289 218.123 354.299 218.105 354.31 218.088C354.321 218.072 354.33 218.061 354.334 218.058L357.162 220.886C357.926 220.122 358.276 219.148 358.276 218.128H354.276ZM354.334 218.058C354.337 218.054 354.348 218.045 354.364 218.034C354.381 218.023 354.399 218.013 354.417 218.006C354.425 218.003 354.432 218.001 354.437 218C354.442 217.998 354.445 217.998 354.445 217.998C354.445 217.998 354.441 217.998 354.435 217.999C354.428 217.999 354.418 218 354.404 218V222C355.424 222 356.398 221.65 357.162 220.886L354.334 218.058ZM339.272 208.258L338.6 206.818L334.976 208.51L335.648 209.95L339.272 208.258ZM336.788 209.664H352.628V205.664H336.788V209.664ZM354.628 207.664V187.072H350.628V207.664H354.628ZM351.18 188.451L352.14 189.459L355.036 186.701L354.076 185.693L351.18 188.451ZM352.001 186.863L335.873 207.887L339.047 210.321L355.175 189.297L352.001 186.863Z" fill="#177B3E"/>
</g>
<path d="M244.542 465.08C245.513 465.08 246.293 465.392 246.882 466.016C247.472 466.605 247.766 467.403 247.766 468.408V499.192C247.766 500.163 247.489 500.925 246.934 501.48C246.38 502.035 245.652 502.312 244.75 502.312C243.849 502.312 243.138 502.035 242.618 501.48C242.098 500.925 241.838 500.163 241.838 499.192V477.768L232.998 494.512C232.582 495.275 232.132 495.847 231.646 496.228C231.161 496.575 230.589 496.748 229.93 496.748C229.272 496.748 228.7 496.575 228.214 496.228C227.729 495.881 227.278 495.309 226.862 494.512L217.97 478.028V499.192C217.97 500.128 217.693 500.891 217.138 501.48C216.618 502.035 215.908 502.312 215.006 502.312C214.105 502.312 213.394 502.035 212.874 501.48C212.354 500.925 212.094 500.163 212.094 499.192V468.408C212.094 467.403 212.372 466.605 212.926 466.016C213.516 465.392 214.296 465.08 215.266 465.08C216.618 465.08 217.676 465.825 218.438 467.316L229.982 489.312L241.474 467.316C242.237 465.825 243.26 465.08 244.542 465.08ZM273.965 475.948C277.501 475.948 280.118 476.832 281.817 478.6C283.55 480.333 284.417 482.985 284.417 486.556V499.244C284.417 500.18 284.14 500.925 283.585 501.48C283.03 502 282.268 502.26 281.297 502.26C280.396 502.26 279.65 501.983 279.061 501.428C278.506 500.873 278.229 500.145 278.229 499.244V498.1C277.64 499.452 276.704 500.509 275.421 501.272C274.173 502.035 272.717 502.416 271.053 502.416C269.354 502.416 267.812 502.069 266.425 501.376C265.038 500.683 263.946 499.729 263.149 498.516C262.352 497.303 261.953 495.951 261.953 494.46C261.953 492.588 262.421 491.115 263.357 490.04C264.328 488.965 265.888 488.185 268.037 487.7C270.186 487.215 273.15 486.972 276.929 486.972H278.229V485.776C278.229 484.077 277.865 482.847 277.137 482.084C276.409 481.287 275.23 480.888 273.601 480.888C272.596 480.888 271.573 481.044 270.533 481.356C269.493 481.633 268.262 482.049 266.841 482.604C265.94 483.055 265.281 483.28 264.865 483.28C264.241 483.28 263.721 483.055 263.305 482.604C262.924 482.153 262.733 481.564 262.733 480.836C262.733 480.247 262.872 479.744 263.149 479.328C263.461 478.877 263.964 478.461 264.657 478.08C265.87 477.421 267.309 476.901 268.973 476.52C270.672 476.139 272.336 475.948 273.965 475.948ZM272.353 497.736C274.086 497.736 275.49 497.164 276.565 496.02C277.674 494.841 278.229 493.333 278.229 491.496V490.404H277.293C274.97 490.404 273.168 490.508 271.885 490.716C270.602 490.924 269.684 491.288 269.129 491.808C268.574 492.328 268.297 493.039 268.297 493.94C268.297 495.049 268.678 495.968 269.441 496.696C270.238 497.389 271.209 497.736 272.353 497.736ZM309.847 475.948C313.383 475.948 316 476.832 317.699 478.6C319.432 480.333 320.299 482.985 320.299 486.556V499.244C320.299 500.18 320.022 500.925 319.467 501.48C318.912 502 318.15 502.26 317.179 502.26C316.278 502.26 315.532 501.983 314.943 501.428C314.388 500.873 314.111 500.145 314.111 499.244V498.1C313.522 499.452 312.586 500.509 311.303 501.272C310.055 502.035 308.599 502.416 306.935 502.416C305.236 502.416 303.694 502.069 302.307 501.376C300.92 500.683 299.828 499.729 299.031 498.516C298.234 497.303 297.835 495.951 297.835 494.46C297.835 492.588 298.303 491.115 299.239 490.04C300.21 488.965 301.77 488.185 303.919 487.7C306.068 487.215 309.032 486.972 312.811 486.972H314.111V485.776C314.111 484.077 313.747 482.847 313.019 482.084C312.291 481.287 311.112 480.888 309.483 480.888C308.478 480.888 307.455 481.044 306.415 481.356C305.375 481.633 304.144 482.049 302.723 482.604C301.822 483.055 301.163 483.28 300.747 483.28C300.123 483.28 299.603 483.055 299.187 482.604C298.806 482.153 298.615 481.564 298.615 480.836C298.615 480.247 298.754 479.744 299.031 479.328C299.343 478.877 299.846 478.461 300.539 478.08C301.752 477.421 303.191 476.901 304.855 476.52C306.554 476.139 308.218 475.948 309.847 475.948ZM308.235 497.736C309.968 497.736 311.372 497.164 312.447 496.02C313.556 494.841 314.111 493.333 314.111 491.496V490.404H313.175C310.852 490.404 309.05 490.508 307.767 490.716C306.484 490.924 305.566 491.288 305.011 491.808C304.456 492.328 304.179 493.039 304.179 493.94C304.179 495.049 304.56 495.968 305.323 496.696C306.12 497.389 307.091 497.736 308.235 497.736ZM347.549 470.176C345.954 470.28 344.793 470.765 344.065 471.632C343.337 472.499 342.973 473.747 342.973 475.376V476.572H347.393C349.334 476.572 350.305 477.387 350.305 479.016C350.305 480.645 349.334 481.46 347.393 481.46H342.973V499.192C342.973 500.197 342.661 500.96 342.037 501.48C341.448 502 340.685 502.26 339.749 502.26C338.813 502.26 338.033 502 337.409 501.48C336.785 500.96 336.473 500.197 336.473 499.192V481.46H333.873C331.932 481.46 330.961 480.645 330.961 479.016C330.961 477.387 331.932 476.572 333.873 476.572H336.473V476.208C336.473 472.949 337.322 470.401 339.021 468.564C340.754 466.692 343.181 465.635 346.301 465.392L347.653 465.288C349.04 465.184 350.01 465.34 350.565 465.756C351.154 466.137 351.449 466.744 351.449 467.576C351.449 469.067 350.6 469.899 348.901 470.072L347.549 470.176ZM42.6653 567C41.8973 567 41.2893 566.792 40.8413 566.376C40.4253 565.928 40.2173 565.336 40.2173 564.6V535.56C40.2173 534.824 40.4253 534.248 40.8413 533.832C41.2893 533.384 41.8973 533.16 42.6653 533.16H52.0733C57.5453 533.16 61.7853 534.632 64.7933 537.576C67.8013 540.52 69.3053 544.68 69.3053 550.056C69.3053 555.432 67.8013 559.608 64.7933 562.584C61.7853 565.528 57.5453 567 52.0733 567H42.6653ZM51.7853 562.872C60.1053 562.872 64.2653 558.6 64.2653 550.056C64.2653 541.544 60.1053 537.288 51.7853 537.288H45.1613V562.872H51.7853ZM85.2938 543C88.3978 543 90.7018 543.784 92.2058 545.352C93.7418 546.92 94.5098 549.304 94.5098 552.504V564.936C94.5098 565.672 94.3018 566.248 93.8858 566.664C93.4698 567.048 92.8938 567.24 92.1578 567.24C91.4538 567.24 90.8938 567.032 90.4778 566.616C90.0618 566.2 89.8538 565.64 89.8538 564.936V563.16C89.2458 564.504 88.3338 565.544 87.1178 566.28C85.9338 566.984 84.5418 567.336 82.9418 567.336C81.4058 567.336 79.9978 567.032 78.7178 566.424C77.4378 565.784 76.4298 564.904 75.6938 563.784C74.9898 562.664 74.6378 561.416 74.6378 560.04C74.6378 558.344 75.0698 557.016 75.9338 556.056C76.8298 555.064 78.2858 554.36 80.3018 553.944C82.3498 553.528 85.1498 553.32 88.7018 553.32H89.8058V551.928C89.8058 550.136 89.4378 548.84 88.7018 548.04C87.9658 547.24 86.7818 546.84 85.1498 546.84C84.0298 546.84 82.9738 546.984 81.9818 547.272C80.9898 547.56 79.9018 547.976 78.7178 548.52C77.8538 549 77.2458 549.24 76.8938 549.24C76.4138 549.24 76.0138 549.064 75.6938 548.712C75.4058 548.36 75.2617 547.912 75.2617 547.368C75.2617 546.888 75.3898 546.472 75.6458 546.12C75.9338 545.736 76.3818 545.368 76.9898 545.016C78.1098 544.408 79.4218 543.928 80.9258 543.576C82.4298 543.192 83.8858 543 85.2938 543ZM83.8058 563.736C85.5658 563.736 87.0058 563.144 88.1258 561.96C89.2458 560.744 89.8058 559.192 89.8058 557.304V556.056H88.9418C86.4458 556.056 84.5258 556.168 83.1818 556.392C81.8378 556.616 80.8778 557 80.3018 557.544C79.7258 558.056 79.4378 558.808 79.4378 559.8C79.4378 560.952 79.8538 561.896 80.6858 562.632C81.5178 563.368 82.5578 563.736 83.8058 563.736ZM112.613 563.544C113.317 563.608 113.813 563.8 114.101 564.12C114.421 564.408 114.581 564.824 114.581 565.368C114.581 566.008 114.325 566.504 113.813 566.856C113.333 567.176 112.613 567.304 111.653 567.24L110.357 567.144C107.765 566.952 105.829 566.168 104.549 564.792C103.269 563.384 102.629 561.32 102.629 558.6V547.32H99.7493C98.3413 547.32 97.6372 546.696 97.6372 545.448C97.6372 544.872 97.8133 544.424 98.1653 544.104C98.5493 543.752 99.0773 543.576 99.7493 543.576H102.629V538.632C102.629 537.896 102.837 537.32 103.253 536.904C103.701 536.488 104.293 536.28 105.029 536.28C105.765 536.28 106.357 536.488 106.805 536.904C107.253 537.32 107.477 537.896 107.477 538.632V543.576H112.229C112.901 543.576 113.413 543.752 113.765 544.104C114.149 544.424 114.341 544.872 114.341 545.448C114.341 546.056 114.149 546.52 113.765 546.84C113.413 547.16 112.901 547.32 112.229 547.32H107.477V558.936C107.477 560.44 107.781 561.544 108.389 562.248C109.029 562.952 109.989 563.352 111.269 563.448L112.613 563.544ZM127.903 543C131.007 543 133.311 543.784 134.815 545.352C136.351 546.92 137.119 549.304 137.119 552.504V564.936C137.119 565.672 136.911 566.248 136.495 566.664C136.079 567.048 135.503 567.24 134.767 567.24C134.063 567.24 133.503 567.032 133.087 566.616C132.671 566.2 132.463 565.64 132.463 564.936V563.16C131.855 564.504 130.943 565.544 129.727 566.28C128.543 566.984 127.151 567.336 125.551 567.336C124.015 567.336 122.607 567.032 121.327 566.424C120.047 565.784 119.039 564.904 118.303 563.784C117.599 562.664 117.247 561.416 117.247 560.04C117.247 558.344 117.679 557.016 118.543 556.056C119.439 555.064 120.895 554.36 122.911 553.944C124.959 553.528 127.759 553.32 131.311 553.32H132.415V551.928C132.415 550.136 132.047 548.84 131.311 548.04C130.575 547.24 129.391 546.84 127.759 546.84C126.639 546.84 125.583 546.984 124.591 547.272C123.599 547.56 122.511 547.976 121.327 548.52C120.463 549 119.855 549.24 119.503 549.24C119.023 549.24 118.623 549.064 118.303 548.712C118.015 548.36 117.871 547.912 117.871 547.368C117.871 546.888 117.999 546.472 118.255 546.12C118.543 545.736 118.991 545.368 119.599 545.016C120.719 544.408 122.031 543.928 123.535 543.576C125.039 543.192 126.495 543 127.903 543ZM126.415 563.736C128.175 563.736 129.615 563.144 130.735 561.96C131.855 560.744 132.415 559.192 132.415 557.304V556.056H131.551C129.055 556.056 127.135 556.168 125.791 556.392C124.447 556.616 123.487 557 122.911 557.544C122.335 558.056 122.047 558.808 122.047 559.8C122.047 560.952 122.463 561.896 123.295 562.632C124.127 563.368 125.167 563.736 126.415 563.736ZM167.543 567.24C166.807 567.24 166.199 567.016 165.719 566.568C165.271 566.088 165.047 565.48 165.047 564.744V537.288H155.447C153.911 537.288 153.143 536.6 153.143 535.224C153.143 534.552 153.335 534.04 153.719 533.688C154.135 533.336 154.711 533.16 155.447 533.16H179.639C180.375 533.16 180.935 533.336 181.319 533.688C181.735 534.04 181.943 534.552 181.943 535.224C181.943 536.6 181.175 537.288 179.639 537.288H170.039V564.744C170.039 565.48 169.815 566.088 169.367 566.568C168.919 567.016 168.311 567.24 167.543 567.24ZM187.917 567.24C187.213 567.24 186.621 567.048 186.141 566.664C185.693 566.28 185.469 565.704 185.469 564.936V545.448C185.469 544.68 185.693 544.104 186.141 543.72C186.621 543.304 187.213 543.096 187.917 543.096C188.621 543.096 189.197 543.304 189.645 543.72C190.093 544.104 190.317 544.68 190.317 545.448V564.936C190.317 565.704 190.093 566.28 189.645 566.664C189.197 567.048 188.621 567.24 187.917 567.24ZM187.917 538.392C186.989 538.392 186.253 538.136 185.709 537.624C185.165 537.112 184.893 536.44 184.893 535.608C184.893 534.776 185.165 534.12 185.709 533.64C186.253 533.128 186.989 532.872 187.917 532.872C188.813 532.872 189.533 533.128 190.077 533.64C190.653 534.12 190.941 534.776 190.941 535.608C190.941 536.44 190.669 537.112 190.125 537.624C189.581 538.136 188.845 538.392 187.917 538.392ZM216.246 532.92C216.982 532.92 217.574 533.128 218.022 533.544C218.47 533.96 218.694 534.52 218.694 535.224V564.888C218.694 565.624 218.47 566.2 218.022 566.616C217.606 567.032 217.03 567.24 216.294 567.24C215.558 567.24 214.966 567.032 214.518 566.616C214.102 566.2 213.894 565.624 213.894 564.888V562.968C213.19 564.376 212.166 565.464 210.822 566.232C209.478 566.968 207.926 567.336 206.166 567.336C204.15 567.336 202.342 566.824 200.742 565.8C199.174 564.776 197.942 563.336 197.046 561.48C196.182 559.624 195.75 557.496 195.75 555.096C195.75 552.664 196.182 550.536 197.046 548.712C197.942 546.888 199.174 545.48 200.742 544.488C202.31 543.496 204.118 543 206.166 543C207.926 543 209.462 543.384 210.774 544.152C212.118 544.888 213.142 545.944 213.846 547.32V535.128C213.846 534.456 214.054 533.928 214.47 533.544C214.918 533.128 215.51 532.92 216.246 532.92ZM207.318 563.496C209.398 563.496 211.014 562.776 212.166 561.336C213.318 559.896 213.894 557.848 213.894 555.192C213.894 552.536 213.318 550.488 212.166 549.048C211.046 547.608 209.43 546.888 207.318 546.888C205.206 546.888 203.558 547.608 202.374 549.048C201.222 550.456 200.646 552.472 200.646 555.096C200.646 557.72 201.238 559.784 202.422 561.288C203.606 562.76 205.238 563.496 207.318 563.496ZM235.294 543C238.398 543 240.702 543.784 242.206 545.352C243.742 546.92 244.51 549.304 244.51 552.504V564.936C244.51 565.672 244.302 566.248 243.886 566.664C243.47 567.048 242.894 567.24 242.158 567.24C241.454 567.24 240.894 567.032 240.478 566.616C240.062 566.2 239.854 565.64 239.854 564.936V563.16C239.246 564.504 238.334 565.544 237.118 566.28C235.934 566.984 234.542 567.336 232.942 567.336C231.406 567.336 229.998 567.032 228.718 566.424C227.438 565.784 226.43 564.904 225.694 563.784C224.99 562.664 224.638 561.416 224.638 560.04C224.638 558.344 225.07 557.016 225.934 556.056C226.83 555.064 228.286 554.36 230.302 553.944C232.35 553.528 235.15 553.32 238.702 553.32H239.806V551.928C239.806 550.136 239.438 548.84 238.702 548.04C237.966 547.24 236.782 546.84 235.15 546.84C234.03 546.84 232.974 546.984 231.982 547.272C230.99 547.56 229.902 547.976 228.718 548.52C227.854 549 227.246 549.24 226.894 549.24C226.414 549.24 226.014 549.064 225.694 548.712C225.406 548.36 225.262 547.912 225.262 547.368C225.262 546.888 225.39 546.472 225.646 546.12C225.934 545.736 226.382 545.368 226.99 545.016C228.11 544.408 229.422 543.928 230.926 543.576C232.43 543.192 233.886 543 235.294 543ZM233.806 563.736C235.566 563.736 237.006 563.144 238.126 561.96C239.246 560.744 239.806 559.192 239.806 557.304V556.056H238.942C236.446 556.056 234.526 556.168 233.182 556.392C231.838 556.616 230.878 557 230.302 557.544C229.726 558.056 229.438 558.808 229.438 559.8C229.438 560.952 229.854 561.896 230.686 562.632C231.518 563.368 232.558 563.736 233.806 563.736ZM270.821 563.208C271.397 563.688 271.685 564.28 271.685 564.984C271.685 565.592 271.477 566.12 271.061 566.568C270.645 567.016 270.149 567.24 269.573 567.24C268.965 567.24 268.421 567.016 267.941 566.568L255.989 556.008V564.888C255.989 565.656 255.765 566.248 255.317 566.664C254.869 567.048 254.293 567.24 253.589 567.24C252.885 567.24 252.293 567.048 251.813 566.664C251.365 566.248 251.141 565.656 251.141 564.888V535.272C251.141 534.504 251.365 533.928 251.813 533.544C252.293 533.128 252.885 532.92 253.589 532.92C254.293 532.92 254.869 533.128 255.317 533.544C255.765 533.928 255.989 534.504 255.989 535.272V554.088L266.933 543.864C267.477 543.384 268.005 543.144 268.517 543.144C269.125 543.144 269.653 543.368 270.101 543.816C270.549 544.264 270.773 544.792 270.773 545.4C270.773 546.008 270.501 546.568 269.957 547.08L261.413 554.904L270.821 563.208ZM291.618 567C290.85 567 290.242 566.792 289.794 566.376C289.378 565.928 289.17 565.336 289.17 564.6V535.56C289.17 534.824 289.378 534.248 289.794 533.832C290.242 533.384 290.85 533.16 291.618 533.16H301.026C306.498 533.16 310.738 534.632 313.746 537.576C316.754 540.52 318.258 544.68 318.258 550.056C318.258 555.432 316.754 559.608 313.746 562.584C310.738 565.528 306.498 567 301.026 567H291.618ZM300.738 562.872C309.058 562.872 313.218 558.6 313.218 550.056C313.218 541.544 309.058 537.288 300.738 537.288H294.114V562.872H300.738ZM326.855 567.24C326.151 567.24 325.559 567.048 325.079 566.664C324.631 566.28 324.407 565.704 324.407 564.936V545.448C324.407 544.68 324.631 544.104 325.079 543.72C325.559 543.304 326.151 543.096 326.855 543.096C327.559 543.096 328.135 543.304 328.583 543.72C329.031 544.104 329.255 544.68 329.255 545.448V564.936C329.255 565.704 329.031 566.28 328.583 566.664C328.135 567.048 327.559 567.24 326.855 567.24ZM326.855 538.392C325.927 538.392 325.191 538.136 324.647 537.624C324.103 537.112 323.831 536.44 323.831 535.608C323.831 534.776 324.103 534.12 324.647 533.64C325.191 533.128 325.927 532.872 326.855 532.872C327.751 532.872 328.471 533.128 329.015 533.64C329.591 534.12 329.879 534.776 329.879 535.608C329.879 536.44 329.607 537.112 329.063 537.624C328.519 538.136 327.783 538.392 326.855 538.392ZM347.504 563.544C348.208 563.608 348.704 563.8 348.992 564.12C349.312 564.408 349.472 564.824 349.472 565.368C349.472 566.008 349.216 566.504 348.704 566.856C348.224 567.176 347.504 567.304 346.544 567.24L345.248 567.144C342.656 566.952 340.72 566.168 339.44 564.792C338.16 563.384 337.52 561.32 337.52 558.6V547.32H334.64C333.232 547.32 332.528 546.696 332.528 545.448C332.528 544.872 332.704 544.424 333.056 544.104C333.44 543.752 333.968 543.576 334.64 543.576H337.52V538.632C337.52 537.896 337.728 537.32 338.144 536.904C338.592 536.488 339.184 536.28 339.92 536.28C340.656 536.28 341.248 536.488 341.696 536.904C342.144 537.32 342.368 537.896 342.368 538.632V543.576H347.12C347.792 543.576 348.304 543.752 348.656 544.104C349.04 544.424 349.232 544.872 349.232 545.448C349.232 546.056 349.04 546.52 348.656 546.84C348.304 547.16 347.792 547.32 347.12 547.32H342.368V558.936C342.368 560.44 342.672 561.544 343.28 562.248C343.92 562.952 344.88 563.352 346.16 563.448L347.504 563.544ZM371.29 561.096C371.738 561.096 372.106 561.272 372.394 561.624C372.682 561.976 372.826 562.424 372.826 562.968C372.826 563.896 372.25 564.68 371.098 565.32C369.978 565.96 368.746 566.456 367.402 566.808C366.09 567.16 364.826 567.336 363.61 567.336C359.898 567.336 356.97 566.264 354.826 564.12C352.682 561.944 351.61 558.984 351.61 555.24C351.61 552.84 352.074 550.712 353.002 548.856C353.962 547 355.29 545.56 356.986 544.536C358.714 543.512 360.666 543 362.842 543C365.978 543 368.458 544.008 370.282 546.024C372.106 548.04 373.018 550.76 373.018 554.184C373.018 555.464 372.442 556.104 371.29 556.104H356.458C356.778 561.064 359.162 563.544 363.61 563.544C364.794 563.544 365.818 563.384 366.682 563.064C367.546 562.744 368.458 562.328 369.418 561.816C369.514 561.752 369.77 561.624 370.186 561.432C370.634 561.208 371.002 561.096 371.29 561.096ZM362.938 546.552C361.082 546.552 359.594 547.144 358.474 548.328C357.354 549.512 356.682 551.176 356.458 553.32H368.842C368.746 551.144 368.186 549.48 367.162 548.328C366.17 547.144 364.762 546.552 362.938 546.552ZM405.24 543C410.488 543 413.112 546.152 413.112 552.456V564.936C413.112 565.672 412.888 566.248 412.44 566.664C411.992 567.048 411.4 567.24 410.664 567.24C409.96 567.24 409.384 567.048 408.936 566.664C408.488 566.248 408.264 565.672 408.264 564.936V552.504C408.264 550.552 407.912 549.144 407.208 548.28C406.504 547.384 405.4 546.936 403.896 546.936C402.136 546.936 400.744 547.544 399.72 548.76C398.696 549.944 398.184 551.576 398.184 553.656V564.936C398.184 565.672 397.96 566.248 397.512 566.664C397.064 567.048 396.472 567.24 395.736 567.24C395.032 567.24 394.456 567.048 394.008 566.664C393.56 566.248 393.336 565.672 393.336 564.936V552.504C393.336 550.552 392.984 549.144 392.28 548.28C391.576 547.384 390.472 546.936 388.968 546.936C387.208 546.936 385.8 547.544 384.744 548.76C383.72 549.944 383.208 551.576 383.208 553.656V564.936C383.208 565.672 382.984 566.248 382.536 566.664C382.088 567.048 381.512 567.24 380.808 567.24C380.104 567.24 379.512 567.048 379.032 566.664C378.584 566.248 378.36 565.672 378.36 564.936V545.4C378.36 544.696 378.6 544.136 379.08 543.72C379.56 543.304 380.136 543.096 380.808 543.096C381.48 543.096 382.024 543.304 382.44 543.72C382.888 544.104 383.112 544.648 383.112 545.352V547.128C383.816 545.784 384.792 544.76 386.04 544.056C387.288 543.352 388.728 543 390.36 543C392.152 543 393.624 543.368 394.776 544.104C395.96 544.84 396.84 545.976 397.416 547.512C398.12 546.136 399.16 545.048 400.536 544.248C401.912 543.416 403.48 543 405.24 543ZM437.895 543.096C438.631 543.096 439.207 543.304 439.623 543.72C440.071 544.136 440.295 544.712 440.295 545.448V564.984C440.295 565.656 440.071 566.2 439.623 566.616C439.175 567.032 438.583 567.24 437.847 567.24C437.175 567.24 436.631 567.048 436.215 566.664C435.799 566.248 435.591 565.704 435.591 565.032V563.208C434.855 564.552 433.831 565.576 432.519 566.28C431.239 566.984 429.799 567.336 428.199 567.336C422.503 567.336 419.655 564.2 419.655 557.928V545.448C419.655 544.712 419.863 544.136 420.279 543.72C420.727 543.304 421.335 543.096 422.103 543.096C422.839 543.096 423.415 543.304 423.831 543.72C424.279 544.136 424.503 544.712 424.503 545.448V557.88C424.503 559.768 424.887 561.16 425.655 562.056C426.423 562.952 427.607 563.4 429.207 563.4C431.095 563.4 432.599 562.792 433.719 561.576C434.871 560.36 435.447 558.744 435.447 556.728V545.448C435.447 544.744 435.671 544.184 436.119 543.768C436.567 543.32 437.159 543.096 437.895 543.096ZM466.759 563.208C467.335 563.688 467.623 564.28 467.623 564.984C467.623 565.592 467.415 566.12 466.999 566.568C466.583 567.016 466.087 567.24 465.511 567.24C464.903 567.24 464.359 567.016 463.879 566.568L451.927 556.008V564.888C451.927 565.656 451.703 566.248 451.255 566.664C450.807 567.048 450.231 567.24 449.527 567.24C448.823 567.24 448.231 567.048 447.751 566.664C447.303 566.248 447.079 565.656 447.079 564.888V535.272C447.079 534.504 447.303 533.928 447.751 533.544C448.231 533.128 448.823 532.92 449.527 532.92C450.231 532.92 450.807 533.128 451.255 533.544C451.703 533.928 451.927 534.504 451.927 535.272V554.088L462.871 543.864C463.415 543.384 463.943 543.144 464.455 543.144C465.063 543.144 465.591 543.368 466.039 543.816C466.487 544.264 466.711 544.792 466.711 545.4C466.711 546.008 466.439 546.568 465.895 547.08L457.351 554.904L466.759 563.208ZM481.575 543C484.679 543 486.983 543.784 488.487 545.352C490.023 546.92 490.791 549.304 490.791 552.504V564.936C490.791 565.672 490.583 566.248 490.167 566.664C489.751 567.048 489.175 567.24 488.439 567.24C487.735 567.24 487.175 567.032 486.759 566.616C486.343 566.2 486.135 565.64 486.135 564.936V563.16C485.527 564.504 484.615 565.544 483.399 566.28C482.215 566.984 480.823 567.336 479.223 567.336C477.687 567.336 476.279 567.032 474.999 566.424C473.719 565.784 472.711 564.904 471.975 563.784C471.271 562.664 470.919 561.416 470.919 560.04C470.919 558.344 471.351 557.016 472.215 556.056C473.111 555.064 474.567 554.36 476.583 553.944C478.631 553.528 481.431 553.32 484.983 553.32H486.087V551.928C486.087 550.136 485.719 548.84 484.983 548.04C484.247 547.24 483.063 546.84 481.431 546.84C480.311 546.84 479.255 546.984 478.263 547.272C477.271 547.56 476.183 547.976 474.999 548.52C474.135 549 473.527 549.24 473.175 549.24C472.695 549.24 472.295 549.064 471.975 548.712C471.687 548.36 471.543 547.912 471.543 547.368C471.543 546.888 471.671 546.472 471.927 546.12C472.215 545.736 472.663 545.368 473.271 545.016C474.391 544.408 475.703 543.928 477.207 543.576C478.711 543.192 480.167 543 481.575 543ZM480.087 563.736C481.847 563.736 483.287 563.144 484.407 561.96C485.527 560.744 486.087 559.192 486.087 557.304V556.056H485.223C482.727 556.056 480.807 556.168 479.463 556.392C478.119 556.616 477.159 557 476.583 557.544C476.007 558.056 475.719 558.808 475.719 559.8C475.719 560.952 476.135 561.896 476.967 562.632C477.799 563.368 478.839 563.736 480.087 563.736ZM510.047 543C515.647 543 518.447 546.152 518.447 552.456V564.936C518.447 565.672 518.223 566.248 517.775 566.664C517.359 567.048 516.767 567.24 515.999 567.24C515.263 567.24 514.671 567.032 514.223 566.616C513.807 566.2 513.599 565.64 513.599 564.936V552.696C513.599 550.712 513.199 549.256 512.399 548.328C511.631 547.4 510.415 546.936 508.751 546.936C506.799 546.936 505.231 547.544 504.047 548.76C502.863 549.976 502.271 551.608 502.271 553.656V564.936C502.271 565.64 502.047 566.2 501.599 566.616C501.183 567.032 500.607 567.24 499.871 567.24C499.135 567.24 498.543 567.032 498.095 566.616C497.647 566.2 497.423 565.64 497.423 564.936V545.4C497.423 544.728 497.647 544.184 498.095 543.768C498.575 543.32 499.167 543.096 499.871 543.096C500.575 543.096 501.135 543.304 501.551 543.72C501.967 544.136 502.175 544.68 502.175 545.352V547.32C502.943 545.912 504.015 544.84 505.391 544.104C506.767 543.368 508.319 543 510.047 543Z" fill="#212121" fill-opacity="0.87"/>
<defs>
<linearGradient id="paint0_linear" x1="277.639" y1="328.675" x2="217.562" y2="48.8894" gradientUnits="userSpaceOnUse">
<stop stop-color="#808080" stop-opacity="0.25"/>
<stop offset="0.54" stop-color="#808080" stop-opacity="0.12"/>
<stop offset="1" stop-color="#808080" stop-opacity="0.1"/>
</linearGradient>
<linearGradient id="paint1_linear" x1="53899.4" y1="-7013.84" x2="53647.6" y2="-8186.53" gradientUnits="userSpaceOnUse">
<stop stop-color="#808080" stop-opacity="0.25"/>
<stop offset="0.54" stop-color="#808080" stop-opacity="0.12"/>
<stop offset="1" stop-color="#808080" stop-opacity="0.1"/>
</linearGradient>
<linearGradient id="paint2_linear" x1="15794" y1="800.016" x2="15442.7" y2="-835.988" gradientUnits="userSpaceOnUse">
<stop stop-color="#808080" stop-opacity="0.25"/>
<stop offset="0.54" stop-color="#808080" stop-opacity="0.12"/>
<stop offset="1" stop-color="#808080" stop-opacity="0.1"/>
</linearGradient>
<linearGradient id="paint3_linear" x1="98806.2" y1="203396" x2="98806.2" y2="36440.5" gradientUnits="userSpaceOnUse">
<stop stop-color="#808080" stop-opacity="0.25"/>
<stop offset="0.54" stop-color="#808080" stop-opacity="0.12"/>
<stop offset="1" stop-color="#808080" stop-opacity="0.1"/>
</linearGradient>
<linearGradient id="paint4_linear" x1="47983.8" y1="3839.42" x2="47983.8" y2="2639.96" gradientUnits="userSpaceOnUse">
<stop stop-color="#808080" stop-opacity="0.25"/>
<stop offset="0.54" stop-color="#808080" stop-opacity="0.12"/>
<stop offset="1" stop-color="#808080" stop-opacity="0.1"/>
</linearGradient>
<linearGradient id="paint5_linear" x1="18955" y1="5085.01" x2="18955" y2="3409.78" gradientUnits="userSpaceOnUse">
<stop stop-color="#808080" stop-opacity="0.25"/>
<stop offset="0.54" stop-color="#808080" stop-opacity="0.12"/>
<stop offset="1" stop-color="#808080" stop-opacity="0.1"/>
</linearGradient>
<clipPath id="clip0">
<rect width="402" height="383" fill="white" transform="translate(78)"/>
</clipPath>
</defs>
</svg>
