<svg width="512" height="510" viewBox="0 0 512 510" fill="none" xmlns="http://www.w3.org/2000/svg">
<path d="M487.818 110.813L275.564 4.68547C263.248 -1.47296 248.752 -1.47296 236.436 4.68547L24.1825 110.813C9.36229 118.223 0 133.371 0 149.941V360.06C0 376.63 9.36229 391.777 24.1825 399.188L236.436 505.315C248.752 511.473 263.248 511.473 275.564 505.315L487.818 399.188C502.638 391.777 512 376.629 512 360.059V149.941C512 133.371 502.638 118.223 487.818 110.813Z" fill="#FAF311"/>
<path d="M256 52.146L51.2 154.546V249.684L77.5674 290.84L51.2 355.454L373.101 349.11L460.8 261.41V154.546L256 52.146Z" fill="white"/>
<path d="M226.697 226.678L192.264 185.573C180.59 171.637 163.342 163.586 145.163 163.586C125.518 163.586 107.057 172.979 95.4936 188.859L51.2 249.684V355.454L226.697 317.976V226.678Z" fill="#E2DC13"/>
<path d="M460.8 261.41V355.454L256 457.854L51.2 355.454L176.456 263.54L256 238.954H392.192L460.8 261.41Z" fill="#E8E108"/>
<path d="M460.8 258.769L376.136 196.652C360.396 185.112 341.392 178.886 321.884 178.886C312.125 178.886 302.49 180.443 293.335 183.442C284.181 186.442 275.497 190.876 267.622 196.652L176.456 263.54L199.782 276.238C215.009 284.522 233.4 284.522 248.617 276.238H248.627C263.844 267.954 282.235 267.954 297.462 276.238C305.07 280.375 313.477 282.454 321.884 282.454C330.281 282.454 338.688 280.375 346.296 276.238C353.915 272.101 362.312 270.022 370.719 270.022C379.126 270.022 387.523 272.101 395.141 276.238C402.76 280.375 411.157 282.454 419.554 282.454C427.961 282.454 436.367 280.375 443.976 276.238L448.358 273.852L460.801 261.41V258.769H460.8Z" fill="#FAF311"/>
</svg>
