<svg width="15" height="18" viewBox="0 0 25 18" fill="none" xmlns="http://www.w3.org/2000/svg">
<path d="M1 17L6.23397 8.09785C6.41692 7.78668 6.85924 7.76598 7.07046 8.0587L10.694 13.0804C10.9239 13.399 11.4145 13.3402 11.5626 12.9764L16.3891 1.11872C16.5571 0.706042 17.1402 0.702588 17.313 1.11325L24 17" stroke="#177B3E"/>
</svg>
